[
    {
        "description": "Beautiful image of sea side.", 
        "external_url": "https://kba.ai/", 
        "image": "https://amaranth-bold-basilisk-287.mypinata.cloud/ipfs/QmcwxVqGKRwYx9tRAUsjoB6M97waW4eVF2Y9oTC3s42BFy", 
        "name": "SketchSea",
        "attributes": [ 
            {
                "trait_type": "Color", 
                "value": "Sketch"
              }, 
              {
                "trait_type": "Image", 
                "value": "seashore"
              }
         ]
      },
      {
        "description": "Beautiful image of sea side.", 
        "external_url": "https://kba.ai/", 
        "image": "https://amaranth-bold-basilisk-287.mypinata.cloud/ipfs/QmUkiLmokL12UvzgMS4Bz3VZPeR85nJZcfwCAQhptpDNpp", 
        "name": "BlueSea",
        "attributes": [ 
            {
                "trait_type": "Color", 
                "value": "Blue"
              }, 
              {
                "trait_type": "Image", 
                "value": "seashore"
              }
         ]
      },
      {
        "description": "Beautiful image of sea side.", 
        "external_url": "https://kba.ai/", 
        "image": "https://amaranth-bold-basilisk-287.mypinata.cloud/ipfs/QmZ1zfb9QWCpb773mCJFJvqmo5Dgswt5yMTWZDtweBj8Hi", 
        "name": "CoolSea",
        "attributes": [ 
            {
                "trait_type": "Color", 
                "value": "Misty"
              }, 
              {
                "trait_type": "Image", 
                "value": "seashore"
              }
         ]
      }
      

]